{
    "header-title": "Party time!",
    "navMenu_1": "Home",
    "navMenu_2": "Gallery",
    "navMenu_3": "About Party",
    "navMenu_4": "Reservation",
    "navMenu_5": "Contacts",
    "reservationBtn": "Reservation",
    "upperTitleHeroText": "31 OCTOBER 2023",
    "heroTitle": "It's Halloween Party O'Clock!",
    "EcommTitle": "Let's be your hosts",
    "cardBtn": "Buy Ticket",
    "leftCardTitle":"Single Ticket",
    "middleCardTitle": "Couple Ticket",
    "rightCardTitle": "Combine Ticket",
    "cardDrink": "Blood Drink",
    "right_Act_1": "Haunted House Tour",
    "middle_Act_1": "Horror Movie Marathon",
    "left_Act_1": "Haunted House Tour",
    "right_Act_2": "Horror Movie Marathon",
    "middle_Act_2": "Pumpking Carving Contest",
    "left_Act_2": "Horror Movie Marathon",
    "galleryTitle": "Halloween Memories",
    "aboutTitle": "join us",
    "aboutSubtitle": "this years Halloween Party!",
    "aboutContent1": "Our Halloween party this year will be an unforgettable experience, filled",
    "aboutContent2": "with spooky decorations, eerie music, thrilling games, and costume",
    "aboutContent3": "contests. Join us for a night of magic and fright!",
    "aboutHunt": "NightWitch hunt",
    "aboutContest": "Bestcostume contest",
    "aboutSweets": "DeliciousCakes and sweets",
    "aboutTipsy": "Everybody get tipsy",
    "aboutGuest": "Dance-off with a star guest",
    "footerPhonenumber": "phone reservation? (+1) 987 46 52 ",
    "ticket1": "Tue, 31 Octobr 2023, 19:00",
    "ticket2": "The Menza Club, Istanbul city"

}